{
  "type": "mysql",
  "host": "trigarante2020-1.cypym5wo7yt3.us-east-1.rds.amazonaws.com",
  "port": 3306,
  "username": "servici1",
  "password": "rdsAdmin*tiv2",
  "database": "trigarante2020-Pruebas",
  "bigNumberStrings": false,
  "entities": [
    "src/entity/**/*.ts"
  ],
  "migrations": [
    "src/migration/**/*.ts"
  ],
  "subscribers": [
    "src/subscriber/**/*.ts"
  ],
  "cli": {
    "entitiesDir": "src/entity",
    "migrationsDir": "src/migration",
    "subscribersDir": "src/subscriber"
  }
}
